title,managerName,groupName,effectiveAt,employmentType,compensationRate,paymentUnit,expectedWeeklyHours
Salesman,Emma Lee,Finance,09/09/2023,FULL_TIME,35,HOURLY,40
software intern,,Engineering,09/09/2023,INTERN,25,HOURLY,20
software engineer,Benjamin Anderson,Engineering,09/09/2023,FULL_TIME,40,SALARY,