<svg width="23" height="18" viewBox="0 0 23 18" fill="none" xmlns="http://www.w3.org/2000/svg">
<path d="M8.93573 0L0 8.99416L2.75546 11.7676L14.4466 0H8.93573Z" fill="#7F9376"/>
<path d="M19.9484 5.52734L8.24805 17.3042H13.759L22.7039 8.30086L19.9484 5.52734Z" fill="#7F9376"/>
<path d="M15.8193 1.37695L4.12891 13.1438L6.88453 15.9175L18.575 4.15061L15.8193 1.37695Z" fill="#7F9376"/>
</svg>
