<svg width="16" height="16" viewBox="0 0 16 16" fill="none" xmlns="http://www.w3.org/2000/svg">
<path d="M10 6L14 10M14 10L10 14M14 10H6C3.79086 10 2 8.20914 2 6C2 3.79086 2 3.33333 2 2" stroke="#242521" stroke-width="1.5" stroke-linecap="round" stroke-linejoin="round"/>
</svg>
